[gd_scene load_steps=5 format=2]

[ext_resource path="res://lights/light-spot.png" type="Texture" id=1]
[ext_resource path="res://fairy/fairy.gd" type="Script" id=2]

[sub_resource type="ParticlesMaterial" id=1]
emission_shape = 1
emission_sphere_radius = 64.0
flag_disable_z = true
spread = 180.0
gravity = Vector3( 0, 0, 0 )
initial_velocity = 100.0
orbit_velocity = 0.0
orbit_velocity_random = 0.0
scale = 4.0
color = Color( 0.913725, 0.380392, 0.580392, 1 )

[sub_resource type="CircleShape2D" id=2]
radius = 150.0

[node name="Fairy" type="Node2D"]
script = ExtResource( 2 )

[node name="Particles2D" type="Particles2D" parent="."]
amount = 100
process_material = SubResource( 1 )

[node name="Light2D" type="Light2D" parent="."]
texture = ExtResource( 1 )
texture_scale = 0.1
color = Color( 0.913725, 0.380392, 0.580392, 1 )

[node name="Area2D" type="Area2D" parent="."]

[node name="CollisionShape2D" type="CollisionShape2D" parent="Area2D"]
shape = SubResource( 2 )

[node name="PositionTween" type="Tween" parent="."]
[connection signal="body_entered" from="Area2D" to="." method="body_entered"]
[connection signal="tween_all_completed" from="PositionTween" to="." method="position_tween_completed"]
